<?xml version="1.0" encoding="UTF-8"?>
<svg width="544px" height="110px" viewBox="0 0 544 110" version="1.1" xmlns="http://www.w3.org/2000/svg" xmlns:xlink="http://www.w3.org/1999/xlink">
    <!-- Generator: Sketch 43.2 (39069) - http://www.bohemiancoding.com/sketch -->
    <title>PERMA</title>
    <desc>Created with Sketch.</desc>
    <defs></defs>
    <g id="Page-1" stroke="none" stroke-width="1" fill="none" fill-rule="evenodd" font-size="144" font-family="EssonnesDisplay-Bold, Essonnes" font-weight="bold">
        <g id="Perma-Step-1" transform="translate(-67.000000, -82.000000)" fill="#5A2B45">
            <text id="PERMA">
                <tspan x="64" y="190">PERMA</tspan>
            </text>
        </g>
    </g>
</svg>